Recompute Results Static 1.05 Dynamic 0.05
1 671649404.0 0.001777370170223971
2 347439685.0 0.0023860442862690436
3 210759796.0 0.0025555505357988707
4 156768824.0 0.0032052281115959344
5 128698109.0 0.0032913289936565937
6 108570222.0 0.00301590922442004
7 93106399.0 0.003018439382858973
8 81291904.0 0.004084826257053121
9 73607543.0 0.003542577926878607
10 67524656.0 0.003907298269247085
